{  
  "submit_listen_payload": {
    "listen_type": "single",
    "payload": [
      {
        "listened_at": 0,
        "track_metadata": {
          "additional_info": {
            "recording_mbid": "98255a8c-017a-4bc7-8dd6-1fa36124572b"
          },
          "artist_name": "Rick Astley",
          "track_name": "Never Gonna Give You Up",
          "release_name": "Whenever you need somebody"
        }
      }
    ]
  },
  "delete_listen_payload": {
    "listened_at": 0,
    "recording_mbid": "98255a8c-017a-4bc7-8dd6-1fa36124572b"
  }
}